29-02-2016,tems of delivery,Terms of Payment,Friends steel,Friends Steel,10 Kalbasdevi,11  Boriwali,Axix Bank,,,,,,
,A312,TP304/304L,"1/4""",SCH10S,13.7,1.65,0.49527,6,13.7 MM X 1.65 MM X 6000 MM,"1/4"" X SCH10S X 6 MTR",1500,743,$2.02 
,A312,TP304/304L,"1/4""",SCH10S,13.7,1.65,0.49527,6,13.7 MM X 1.65 MM X 6000 MM,"1/4"" X SCH10S X 6 MTR",1500,743,$2.02 
